<svg width="14" height="12" viewBox="0 0 14 12" fill="none" xmlns="http://www.w3.org/2000/svg">
<path d="M12.3333 0.666672H1.66668C0.933344 0.666672 0.333344 1.26667 0.333344 2.00001V10C0.333344 10.7333 0.933344 11.3333 1.66668 11.3333H12.3333C13.0667 11.3333 13.6667 10.7333 13.6667 10V2.00001C13.6667 1.26667 13.0667 0.666672 12.3333 0.666672ZM12.0667 3.50001L7.70668 6.22667C7.27334 6.5 6.72668 6.5 6.29334 6.22667L1.93334 3.50001C1.76668 3.39334 1.66668 3.21334 1.66668 3.02C1.66668 2.57334 2.15334 2.30667 2.53334 2.54L7.00001 5.33334L11.4667 2.54C11.8467 2.30667 12.3333 2.57334 12.3333 3.02C12.3333 3.21334 12.2333 3.39334 12.0667 3.50001Z" fill="#6D7885"/>
</svg>
